%YAML 1.1
%TAG !u! tag:unity3d.com,2011:
--- !u!74 &7400000
AnimationClip:
  m_ObjectHideFlags: 0
  m_PrefabParentObject: {fileID: 0}
  m_PrefabInternal: {fileID: 0}
  m_Name: CatEat
  serializedVersion: 6
  m_Legacy: 0
  m_Compressed: 0
  m_UseHighQualityCurve: 1
  m_RotationCurves: []
  m_CompressedRotationCurves: []
  m_EulerCurves: []
  m_PositionCurves: []
  m_ScaleCurves: []
  m_FloatCurves: []
  m_PPtrCurves:
  - curve:
    - time: 0
      value: {fileID: 21300000, guid: 4ba5efa6c1273034fb467831be291f2d, type: 3}
    - time: 0.05
      value: {fileID: 21300000, guid: f15f782b07374d84ab21fd9529756cce, type: 3}
    - time: 0.1
      value: {fileID: 21300000, guid: 87d20eac3f9d396468442a19f1286db6, type: 3}
    - time: 0.15
      value: {fileID: 21300000, guid: 0f4454e1b7358314184ce3b46f010157, type: 3}
    - time: 0.2
      value: {fileID: 21300000, guid: 2b6206490ce38ba499c68126a25e1f8f, type: 3}
    - time: 0.25
      value: {fileID: 21300000, guid: 63e7aa031831c5744a8569ab146a7915, type: 3}
    - time: 0.3
      value: {fileID: 21300000, guid: 69a1b0c86443f1242b5fc1b7b230540b, type: 3}
    - time: 0.35
      value: {fileID: 21300000, guid: d09dcd17fb6fbf040a003a593165ea1e, type: 3}
    - time: 0.4
      value: {fileID: 21300000, guid: b53caa042c662d6448e8b283ef946751, type: 3}
    - time: 0.45
      value: {fileID: 21300000, guid: 8800385120dcfd74cb751d828ccfdd18, type: 3}
    - time: 0.5
      value: {fileID: 21300000, guid: 474918cf298abda47893dc8f49d88fb9, type: 3}
    - time: 0.55
      value: {fileID: 21300000, guid: a693ab50d11af9249a8880529b85863c, type: 3}
    - time: 0.6
      value: {fileID: 21300000, guid: b355ec8d82661d1489ad3b362c8c93cc, type: 3}
    attribute: m_Sprite
    path: 
    classID: 212
    script: {fileID: 0}
  m_SampleRate: 20
  m_WrapMode: 0
  m_Bounds:
    m_Center: {x: 0, y: 0, z: 0}
    m_Extent: {x: 0, y: 0, z: 0}
  m_ClipBindingConstant:
    genericBindings:
    - serializedVersion: 2
      path: 0
      attribute: 0
      script: {fileID: 0}
      typeID: 212
      customType: 23
      isPPtrCurve: 1
    pptrCurveMapping:
    - {fileID: 21300000, guid: 4ba5efa6c1273034fb467831be291f2d, type: 3}
    - {fileID: 21300000, guid: f15f782b07374d84ab21fd9529756cce, type: 3}
    - {fileID: 21300000, guid: 87d20eac3f9d396468442a19f1286db6, type: 3}
    - {fileID: 21300000, guid: 0f4454e1b7358314184ce3b46f010157, type: 3}
    - {fileID: 21300000, guid: 2b6206490ce38ba499c68126a25e1f8f, type: 3}
    - {fileID: 21300000, guid: 63e7aa031831c5744a8569ab146a7915, type: 3}
    - {fileID: 21300000, guid: 69a1b0c86443f1242b5fc1b7b230540b, type: 3}
    - {fileID: 21300000, guid: d09dcd17fb6fbf040a003a593165ea1e, type: 3}
    - {fileID: 21300000, guid: b53caa042c662d6448e8b283ef946751, type: 3}
    - {fileID: 21300000, guid: 8800385120dcfd74cb751d828ccfdd18, type: 3}
    - {fileID: 21300000, guid: 474918cf298abda47893dc8f49d88fb9, type: 3}
    - {fileID: 21300000, guid: a693ab50d11af9249a8880529b85863c, type: 3}
    - {fileID: 21300000, guid: b355ec8d82661d1489ad3b362c8c93cc, type: 3}
  m_AnimationClipSettings:
    serializedVersion: 2
    m_AdditiveReferencePoseClip: {fileID: 0}
    m_AdditiveReferencePoseTime: 0
    m_StartTime: 0
    m_StopTime: 0.65000004
    m_OrientationOffsetY: 0
    m_Level: 0
    m_CycleOffset: 0
    m_HasAdditiveReferencePose: 0
    m_LoopTime: 1
    m_LoopBlend: 0
    m_LoopBlendOrientation: 0
    m_LoopBlendPositionY: 0
    m_LoopBlendPositionXZ: 0
    m_KeepOriginalOrientation: 0
    m_KeepOriginalPositionY: 1
    m_KeepOriginalPositionXZ: 0
    m_HeightFromFeet: 0
    m_Mirror: 0
  m_EditorCurves: []
  m_EulerEditorCurves: []
  m_HasGenericRootTransform: 0
  m_HasMotionFloatCurves: 0
  m_GenerateMotionCurves: 0
  m_Events: []
